…
# Read in each .tsv, iteratively append each to our `roi_tbl`
for (tsv in temp_list) {
  tmp_df <- read_tsv(paste0("June_2021/roi_data/", tsv))
  tmp_df <- tmp_df %>% mutate(filename = tsv)
  roi_tbl <- bind_rows(roi_tbl, tmp_df)
}
```
**Inspect**
Inspecting the data, we see it is indeed quite tidy and ready for analysis!
```
> roi_tbl
# A tibble: 438 × 16
   Group   ROI   `12C` `13C` `14N_12C` `15N_12C` `31P`  `32S` `34S`       SE Ratio_15N_12Cx14… filename  
   <chr> <dbl>   <dbl> <dbl>     <dbl>     <dbl> <dbl>  <dbl> <dbl>    <dbl>             <dbl> <chr>     
 1 red       0 7692870 81630    769335      2901  1309 133310  5906 11880832           0.00376 1_CN_ligh…
 2 red       1 5421421 57308    589241      2198  1380 159254  6941  9780419           0.00372 1_CN_ligh…
 3 blue      0  553515  5935     88941       359   150  10528   443  1048372           0.00402 1_CN_ligh…
 4 blue      1  985215 10570     94778       355   263  17104   777  1516020           0.00373 1_CN_ligh…
 5 blue      2 1851684 19650   1753653     12111 20884 256457 11370  2832207           0.00686 1_CN_ligh…
 6 red       0 4774159 49723   1798080     13140  3022 176625  7583 12558414           0.00725 1_CN_ligh…
 7 red       0 7393259 78017   2535672     25564 21557 584673 26096 11187109           0.00998 1_CN_ligh…
 8 blue      0 1380422 14699    150733       571   416  16807   759  2333582           0.00377 1_CN_ligh…
 9 blue      1 1167079 12612     44057       206   188  13096   579  1613073           0.00465 1_CN_ligh…
10 blue      2  701304  7526     41563       184   161  16677   756  1137139           0.00441 1_CN_ligh…
# … with 428 more rows, and 4 more variables: sample <chr>, layer <chr>, atom % N15 <dbl>, notes <chr>
```
